{"categories":[
	{"cat_name":"Ervhv","id":"1","img":"","description":""},
	{"cat_name":"Shopping","id":"2","img":"","description":""},
	{"cat_name":"Nyheder","id":"3","img":"","description":""},
	{"cat_name":"Tilbud","id":"4","img":"","description":""},
	{"cat_name":"Sports & sundhed","id":"5","img":"","description":""},
	{"cat_name":"info","id":"6","img":"","description":""}
				]}